Text mining of finnish housing policy documents • rfintext
…
aspol |>
  dplyr::filter(UPOSTAG %in% c("NOUN", "VERB", "ADJ", "ADV")) |>
  dplyr::count(LEMMA, UPOSTAG, sort = TRUE)
#> # A tibble: 20,180 × 3
#>    LEMMA           UPOSTAG     n
#>    <chr>           <chr>   <int>
#>  1 kaupunki        NOUN     4081
#>  2 asunto          NOUN     3954
#>  3 vuosi           NOUN     3683
#>  4 asuminen        NOUN     3080
#>  5 alue            NOUN     2888
#>  6 kunta           NOUN     2601
#>  7 myös            ADV      1945
#>  8 tavoite         NOUN     1911
#>  9 uusi            ADJ      1504
#> 10 olla            VERB     1491
#> 11 osa             NOUN     1406
#> 12 tulla           VERB     1306
#> 13 ohjelma         NOUN     1258
#> 14 asukas          NOUN     1252
#> 15 palvelu         NOUN     1236
#> 16 tontti          NOUN     1214
#> 17 rakentaminen    NOUN     1103
#> 18 noin            ADV      1101
#> 19 määrä           NOUN     1092
#> 20 asunto#tuotanto NOUN      921
#> # ℹ 20,160 more rows

aspol |>
  group_by(LEMMA) |>
  summarise(taivutusmuodot = length(unique(FORM))) |>
  arrange(desc(taivutusmuodot))
#> # A tibble: 34,935 × 2
#>    LEMMA    taivutusmuodot
#>    <chr>             <int>
#>  1 olla                 85
#>  2 suuri                78
#>  3 asunto               74
#>  4 tehdä                72
#>  5 saada                70
#>  6 hyvä                 68
#>  7 rakentaa             65
#>  8 tämä                 64
#>  9 se                   63
#> 10 tavoite              61
#> # ℹ 34,925 more rows

aspol |>
  filter(LEMMA == "asunto") |>
  count(FORM, FEATS, sort = TRUE)
#> # A tibble: 81 × 3
#>    FORM       FEATS                    n
#>    <chr>      <chr>                <int>
#>  1 asuntojen  Case=Gen|Number=Plur   880
#>  2 asuntoa    Case=Par|Number=Sing   516
#>  3 asuntoja   Case=Par|Number=Plur   472
#>  4 asunnot    Case=Nom|Number=Plur   317
#>  5 asunnon    Case=Gen|Number=Sing   306
#>  6 Asuntojen  Case=Gen|Number=Plur   240
#>  7 asunto-    Case=Nom|Number=Sing   190
#>  8 asunnoista Case=Ela|Number=Plur   171
#>  9 asunto     Case=Nom|Number=Sing   123
#> 10 Asunnot    Case=Nom|Number=Plur    98
#> 11 asunnoissa Case=Ine|Number=Plur    72
#> 12 asuntoihin Case=Ill|Number=Plur    63
#> 13 asuntoon   Case=Ill|Number=Sing    59
#> 14 Asunto-    Case=Nom|Number=Sing    41
#> 15 Asunnon    Case=Gen|Number=Sing    40
#> 16 Asuntoja   Case=Par|Number=Plur    39
#> 17 asunnossa  Case=Ine|Number=Sing    37
#> 18 Asunto     Case=Nom|Number=Sing    30
#> 19 asunnosta  Case=Ela|Number=Sing    26
#> 20 asunnoiksi Case=Tra|Number=Plur    23
#> # ℹ 61 more rows

aspol |>
  group_by(FORM) |>
  summarise(perusmuoto = length(unique(UPOSTAG))) |>
  arrange(desc(perusmuoto))
#> # A tibble: 69,686 × 2
#>    FORM  perusmuoto
#>    <chr>      <int>
#>  1 .              9
#>  2 /              9
#>  3 o              9
#>  4 -              6
#>  5 @              6
#>  6 Yli            6
#>  7 –              6
#>  8 !              5
#>  9 %              5
#> 10 )              5
#> # ℹ 69,676 more rows

aspol |>
  filter(LEMMA == "olla") |>
  count(FORM, LEMMA, UPOSTAG, FEATS, sort = TRUE)
#> # A tibble: 130 × 5
#>    FORM     LEMMA UPOSTAG FEATS                                                                     n
#>    <chr>    <chr> <chr>   <chr>                                                                 <int>
#>  1 on       olla  AUX     Mood=Ind|Number=Sing|Person=3|Tense=Pres|VerbForm=Fin|Voice=Act        9847
#>  2 ovat     olla  AUX     Mood=Ind|Number=Plur|Person=3|Tense=Pres|VerbForm=Fin|Voice=Act        1653
#>  3 oli      olla  AUX     Mood=Ind|Number=Sing|Person=3|Tense=Past|VerbForm=Fin|Voice=Act         762
#>  4 ole      olla  AUX     Connegative=Yes|Mood=Ind|Tense=Pres|VerbForm=Fin                        487
#>  5 ollut    olla  AUX     Case=Nom|Degree=Pos|Number=Sing|PartForm=Past|VerbForm=Part|Voice=Act   450
#>  6 olla     olla  AUX     InfForm=1|Number=Sing|VerbForm=Inf|Voice=Act                            447
#>  7 on       olla  AUX     Mood=Ind|Number=Sing|Person=0|Tense=Pres|VerbForm=Fin|Voice=Act         255
#>  8 olemassa olla  VERB    Case=Ine|InfForm=3|Number=Sing|VerbForm=Inf|Voice=Act                   229
#>  9 olevien  olla  VERB    Case=Gen|Degree=Pos|Number=Plur|PartForm=Pres|VerbForm=Part|Voice=Act   172
#> 10 olisi    olla  AUX     Mood=Cnd|Number=Sing|Person=3|VerbForm=Fin|Voice=Act                    148
#> 11 olevat   olla  VERB    Case=Nom|Degree=Pos|Number=Plur|PartForm=Pres|VerbForm=Part|Voice=Act   134
#> 12 olevan   olla  VERB    Case=Gen|Degree=Pos|Number=Sing|PartForm=Pres|VerbForm=Part|Voice=Act   122
#> 13 ole      olla  VERB    Connegative=Yes|Mood=Ind|Tense=Pres|VerbForm=Fin                        119
#> 14 olevia   olla  VERB    Case=Par|Degree=Pos|Number=Plur|PartForm=Pres|VerbForm=Part|Voice=Act   108
#> 15 oleva    olla  VERB    Case=Nom|Degree=Pos|Number=Sing|PartForm=Pres|VerbForm=Part|Voice=Act   100
#> 16 olevaa   olla  VERB    Case=Par|Degree=Pos|Number=Sing|PartForm=Pres|VerbForm=Part|Voice=Act    77
#> 17 olevan   olla  AUX     Case=Gen|Degree=Pos|Number=Sing|PartForm=Pres|VerbForm=Part|Voice=Act    71
#> 18 olivat   olla  AUX     Mood=Ind|Number=Plur|Person=3|Tense=Past|VerbForm=Fin|Voice=Act          71
#> 19 olleet   olla  AUX     Case=Nom|Degree=Pos|Number=Plur|PartForm=Past|VerbForm=Part|Voice=Act    66
#> 20 on       olla  VERB    Mood=Ind|Number=Sing|Person=3|Tense=Pres|VerbForm=Fin|Voice=Act          58
#> # ℹ 110 more rows
…
