1 Data preprocessing • rfintext
…
2. Remove words which contain numbers

3. Filter out foreign terms

4. Drop terms which appear in less than 0.5% of documents (at least 5
docs here) 5. Drop terms which appear in more than 99% of documents (at
most 65 docs here)

6. Additionally we drop very short terms (under 2 character in original
FORM and under 3 characters in base LEMMA)

Original terms total 451660

aspol |> count(LEMMA, sort = TRUE)
#> # A tibble: 34,935 × 2
#>    LEMMA        n
#>    <chr>    <int>
#>  1 .        26183
#>  2 ja       17283
#>  3 olla     16098
#>  4 ,        15519
#>  5 !         8029
#>  6 kaupunki  4081
#>  7 )         4029
#>  8 asunto    3954
#>  9 vuosi     3685
#> 10 (         3408
#> # ℹ 34,925 more rows

Let’s take a closer look what we are throwing away while carrying out
our pre processing pipeline.

Filtering nouns, verbs and adjectives drop following terms:

aspol |> filter(!UPOSTAG %in% c("NOUN", "VERB", "ADJ")) |>  # Note negation operator `!` here
  count(LEMMA, sort = TRUE)
#> # A tibble: 16,812 × 2
#>    LEMMA     n
#>    <chr> <int>
#>  1 .     25866
#>  2 ja    17278
#>  3 ,     15519
#>  4 olla  14602
#>  5 !      8028
#>  6 )      3468
#>  7 (      3407
#>  8 %      3066
#>  9 joka   2710
#> 10 sekä   2307
#> # ℹ 16,802 more rows

Now we filter nouns, verbs and adjectives.Which of those words
contain numbers (in their original FORM at least).

aspol |>
  filter(UPOSTAG %in% c("NOUN", "VERB", "ADJ")) |>
  filter(str_detect(FORM, "[0-9]+")) |>  # remove_numbers() function is the same but with negation `!`
  count(LEMMA, sort = TRUE)
#> # A tibble: 594 × 2
#>    LEMMA             n
#>    <chr>         <int>
#>  1 1.              124
#>  2 2000#luku       110
#>  3 2010#luku       107
#>  4 m2               90
#>  5 2.               87
#>  6 3.               87
#>  7 pl 1             85
#>  8 2030#luku        66
#>  9 4.               56
#> 10 menrer#mammen    42
#> # ℹ 584 more rows
…
Very uncommon terms in terms of document frequency:

aspol |>
  filter(UPOSTAG %in% c("NOUN", "VERB", "ADJ")) |>
  filter(!str_detect(FORM, "[0-9]+")) |>
  filter(!str_detect(FEATS, "Foreign=Yes")) |>
  calculate_doc_freq(kunta, LEMMA) |>
  filter(df < 5) |>
  count(LEMMA, sort = TRUE)
#> # A tibble: 14,901 × 2
#>    LEMMA                   n
#>    <chr>               <int>
#>  1 )                     561
#>  2 x                     119
#>  3 V                     100
#>  4 kuusamo                72
#>  5 mikkelinen             55
#>  6 R                      53
#>  7 W                      50
#>  8 maan#vuokra#sopimus    49
#>  9 kehys#alue             47
#> 10 kaupungin#kanslia      46
#> # ℹ 14,891 more rows

Nouns, verbs or adjectives with numbers removed, foreign (or
nonsense) removed, but very short terms still present:

aspol |>
  filter(UPOSTAG %in% c("NOUN", "VERB", "ADJ")) |>
  filter(!str_detect(FORM, "[0-9]+")) |>
  filter(!str_detect(FEATS, "Foreign=Yes")) |>
  calculate_doc_freq(kunta, LEMMA) |>
  filter(df >= 5, df <= 65) |>
  filter(nchar(FORM) < 3, nchar(LEMMA) < 4) |>
  count(LEMMA, sort = TRUE)
#> # A tibble: 42 × 2
#>    LEMMA     n
#>    <chr> <int>
#>  1 oy      452
#>  2 .       317
#>  3 o       286
#>  4 a       159
#>  5 v.      135
#>  6 /        99
#>  7 I        92
#>  8 ..       61
#>  9 -        53
#> 10 A        51
#> # ℹ 32 more rows

Complete pre processing pipeline:

aspol |>
  filter(UPOSTAG %in% c("NOUN", "VERB", "ADJ")) |>
  filter(!str_detect(FORM, "[0-9]+")) |>
  filter(!str_detect(FEATS, "Foreign=Yes")) |>
  calculate_doc_freq(kunta, LEMMA) |>
  filter(df >= 5, df <= 65) |>
  filter(nchar(FORM) >= 3, nchar(LEMMA) >= 4)
#> # A tibble: 182,564 × 15
#>    kunta      sent ID    FORM                    LEMMA                  UPOSTAG XPOSTAG FEATS                                                                      HEAD  DEPREL      DEPS  MISC                       doc                           df df_ratio
#>    <chr>     <int> <chr> <chr>                   <chr>                  <chr>   <chr>   <chr>                                                                      <chr> <chr>       <chr> <chr>                      <chr>                      <int>    <dbl>
#>  1 Enontekiö     4 1     "KUNTA"                 kunta                  NOUN    _       Case=Nom|Number=Sing                                                       0     root        _     "SpacesAfter=\\r\\n\\r\\n" enontekiö_2017-2025.conllu    64    0.941
#>  2 Enontekiö     5 1     "VUOKRA-ASUMISEN"       vuokra#asuminen        NOUN    _       Case=Gen|Derivation=Minen|Number=Sing                                      2     nmod:poss   _     "SpacesAfter=\\r\\n"       enontekiö_2017-2025.conllu    43    0.632
#>  3 Enontekiö     5 2     "KEHITTÄMISSUUNNITELMA" kehittämis#suunnitelma NOUN    _       Case=Nom|Number=Sing                                                       0     root        _     "SpacesAfter=\\r\\n"       enontekiö_2017-2025.conllu    17    0.25 
#>  4 Enontekiö    19 2     "tehemä"                tehdä                  VERB    _       Mood=Ind|Number=Sing|Person=3|Style=Coll|Tense=Past|VerbForm=Fin|Voice=Act 0     root        _     "_"                        enontekiö_2017-2025.conllu    63    0.926
#>  5 Enontekiö    21 1     "\fSisällysluettelo"    sisällys#luettelo      NOUN    _       Case=Nom|Number=Sing                                                       0     root        _     "SpacesAfter=\\r\\n"       enontekiö_2017-2025.conllu    16    0.235
#>  6 Enontekiö    21 3     "Johdanto"              johdanto               NOUN    _       Case=Nom|Number=Sing                                                       1     appos       _     "_"                        enontekiö_2017-2025.conllu    34    0.5  
#>  7 Enontekiö    24 2     "Väestö"                väestö                 NOUN    _       Case=Nom|Number=Sing                                                       0     root        _     "SpaceAfter=No"            enontekiö_2017-2025.conllu    54    0.794
#>  8 Enontekiö    26 1     "Elinkeinoelämä"        elin#keino#elämä       NOUN    _       Case=Nom|Number=Sing                                                       0     root        _     "_"                        enontekiö_2017-2025.conllu    33    0.485
#>  9 Enontekiö    26 3     "työpaikat"             työ#paikka             NOUN    _       Case=Nom|Number=Plur                                                       1     conj        _     "SpaceAfter=No"            enontekiö_2017-2025.conllu    47    0.691
#> 10 Enontekiö    38 1     "Kiinteistöyhtiö"       kiinteistö#yhtiö       NOUN    _       Case=Nom|Number=Sing                                                       4     nsubj:cop   _     "_"                        enontekiö_2017-2025.conllu    12    0.176
#> 11 Enontekiö    38 3     "kunnan"                kunta                  NOUN    _       Case=Gen|Number=Sing                                                       4     nmod:poss   _     "_"                        enontekiö_2017-2025.conllu    64    0.941
#> 12 Enontekiö    39 1     "Taloustilanne"         talous#tilanne         NOUN    _       Case=Nom|Number=Sing                                                       0     root        _     "_"                        enontekiö_2017-2025.conllu    11    0.162
#> 13 Enontekiö    41 1     "Tulevaisuuden"         tulevaisuus            NOUN    _       Case=Gen|Number=Sing                                                       2     nmod:poss   _     "_"                        enontekiö_2017-2025.conllu    56    0.824
#> 14 Enontekiö    42 1     "Kiinteistöyhtiö"       kiinteistö#yhtiö       NOUN    _       Case=Nom|Number=Sing                                                       2     compound:nn _     "_"                        enontekiö_2017-2025.conllu    12    0.176
#> 15 Enontekiö    43 2     "teette"                tehdä                  VERB    _       Mood=Ind|Number=Plur|Person=2|Tense=Pres|VerbForm=Fin|Voice=Act            0     root        _     "_"                        enontekiö_2017-2025.conllu    63    0.926
#> 16 Enontekiö    44 1     "Taloustilanne"         talous#tilanne         NOUN    _       Case=Nom|Number=Sing                                                       10    nsubj       _     "_"                        enontekiö_2017-2025.conllu    11    0.162
#> 17 Enontekiö    46 1     "Tulevaisuuden"         tulevaisuus            NOUN    _       Case=Gen|Number=Sing                                                       2     nmod:poss   _     "_"                        enontekiö_2017-2025.conllu    56    0.824
#> 18 Enontekiö    46 2     "näkymät"               näkymä                 NOUN    _       Case=Nom|Number=Plur                                                       0     root        _     "SpaceAfter=No"            enontekiö_2017-2025.conllu    16    0.235
#> 19 Enontekiö    48 1     "Kunnan"                kunta                  NOUN    _       Case=Gen|Number=Sing                                                       2     nsubj       _     "_"                        enontekiö_2017-2025.conllu    64    0.941
#> 20 Enontekiö    48 2     "omistamat"             omistaa                VERB    _       Case=Nom|Degree=Pos|Number=Plur|PartForm=Agt|VerbForm=Part|Voice=Act       4     acl         _     "_"                        enontekiö_2017-2025.conllu    55    0.809
#> # ℹ 182,544 more rows

Complete preprocessing pipeline as a single function. This is exactly
the same as above but easier to type.

aspol |> preprocess_corpus(doc = kunta)
#> # A tibble: 182,564 × 15
#>    kunta      sent ID    FORM                    LEMMA                  UPOSTAG XPOSTAG FEATS                                                                      HEAD  DEPREL      DEPS  MISC                       doc                           df df_ratio
#>    <chr>     <int> <chr> <chr>                   <chr>                  <chr>   <chr>   <chr>                                                                      <chr> <chr>       <chr> <chr>                      <chr>                      <int>    <dbl>
#>  1 Enontekiö     4 1     "KUNTA"                 kunta                  NOUN    _       Case=Nom|Number=Sing                                                       0     root        _     "SpacesAfter=\\r\\n\\r\\n" enontekiö_2017-2025.conllu    64    0.941
#>  2 Enontekiö     5 1     "VUOKRA-ASUMISEN"       vuokra#asuminen        NOUN    _       Case=Gen|Derivation=Minen|Number=Sing                                      2     nmod:poss   _     "SpacesAfter=\\r\\n"       enontekiö_2017-2025.conllu    43    0.632
#>  3 Enontekiö     5 2     "KEHITTÄMISSUUNNITELMA" kehittämis#suunnitelma NOUN    _       Case=Nom|Number=Sing                                                       0     root        _     "SpacesAfter=\\r\\n"       enontekiö_2017-2025.conllu    17    0.25 
#>  4 Enontekiö    19 2     "tehemä"                tehdä                  VERB    _       Mood=Ind|Number=Sing|Person=3|Style=Coll|Tense=Past|VerbForm=Fin|Voice=Act 0     root        _     "_"                        enontekiö_2017-2025.conllu    63    0.926
#>  5 Enontekiö    21 1     "\fSisällysluettelo"    sisällys#luettelo      NOUN    _       Case=Nom|Number=Sing                                                       0     root        _     "SpacesAfter=\\r\\n"       enontekiö_2017-2025.conllu    16    0.235
#>  6 Enontekiö    21 3     "Johdanto"              johdanto               NOUN    _       Case=Nom|Number=Sing                                                       1     appos       _     "_"                        enontekiö_2017-2025.conllu    34    0.5  
#>  7 Enontekiö    24 2     "Väestö"                väestö                 NOUN    _       Case=Nom|Number=Sing                                                       0     root        _     "SpaceAfter=No"            enontekiö_2017-2025.conllu    54    0.794
#>  8 Enontekiö    26 1     "Elinkeinoelämä"        elin#keino#elämä       NOUN    _       Case=Nom|Number=Sing                                                       0     root        _     "_"                        enontekiö_2017-2025.conllu    33    0.485
#>  9 Enontekiö    26 3     "työpaikat"             työ#paikka             NOUN    _       Case=Nom|Number=Plur                                                       1     conj        _     "SpaceAfter=No"            enontekiö_2017-2025.conllu    47    0.691
#> 10 Enontekiö    38 1     "Kiinteistöyhtiö"       kiinteistö#yhtiö       NOUN    _       Case=Nom|Number=Sing                                                       4     nsubj:cop   _     "_"                        enontekiö_2017-2025.conllu    12    0.176
#> 11 Enontekiö    38 3     "kunnan"                kunta                  NOUN    _       Case=Gen|Number=Sing                                                       4     nmod:poss   _     "_"                        enontekiö_2017-2025.conllu    64    0.941
#> 12 Enontekiö    39 1     "Taloustilanne"         talous#tilanne         NOUN    _       Case=Nom|Number=Sing                                                       0     root        _     "_"                        enontekiö_2017-2025.conllu    11    0.162
#> 13 Enontekiö    41 1     "Tulevaisuuden"         tulevaisuus            NOUN    _       Case=Gen|Number=Sing                                                       2     nmod:poss   _     "_"                        enontekiö_2017-2025.conllu    56    0.824
#> 14 Enontekiö    42 1     "Kiinteistöyhtiö"       kiinteistö#yhtiö       NOUN    _       Case=Nom|Number=Sing                                                       2     compound:nn _     "_"                        enontekiö_2017-2025.conllu    12    0.176
#> 15 Enontekiö    43 2     "teette"                tehdä                  VERB    _       Mood=Ind|Number=Plur|Person=2|Tense=Pres|VerbForm=Fin|Voice=Act            0     root        _     "_"                        enontekiö_2017-2025.conllu    63    0.926
#> 16 Enontekiö    44 1     "Taloustilanne"         talous#tilanne         NOUN    _       Case=Nom|Number=Sing                                                       10    nsubj       _     "_"                        enontekiö_2017-2025.conllu    11    0.162
#> 17 Enontekiö    46 1     "Tulevaisuuden"         tulevaisuus            NOUN    _       Case=Gen|Number=Sing                                                       2     nmod:poss   _     "_"                        enontekiö_2017-2025.conllu    56    0.824
#> 18 Enontekiö    46 2     "näkymät"               näkymä                 NOUN    _       Case=Nom|Number=Plur                                                       0     root        _     "SpaceAfter=No"            enontekiö_2017-2025.conllu    16    0.235
#> 19 Enontekiö    48 1     "Kunnan"                kunta                  NOUN    _       Case=Gen|Number=Sing                                                       2     nsubj       _     "_"                        enontekiö_2017-2025.conllu    64    0.941
#> 20 Enontekiö    48 2     "omistamat"             omistaa                VERB    _       Case=Nom|Degree=Pos|Number=Plur|PartForm=Agt|VerbForm=Part|Voice=Act       4     acl         _     "_"                        enontekiö_2017-2025.conllu    55    0.809
#> # ℹ 182,544 more rows
…
