2 Document term matrix • rfintext
…
Bag-of-Words representation

Pre processing aspol corpus and calculating document
term count (dtc) using bag-of-words representation. Single term
per document per row.

bow <- aspol |>
  preprocess_corpus(kunta) |>
  count(kunta, LEMMA, name = "dtc")
bow
#> # A tibble: 48,269 × 3
#>    kunta     LEMMA            dtc
#>    <chr>     <chr>          <int>
#>  1 Enontekiö A#talo             3
#>  2 Enontekiö Vapaa#aika         1
#>  3 Enontekiö aiheuttaa          3
#>  4 Enontekiö aika               7
#>  5 Enontekiö aika#väli          1
#>  6 Enontekiö ajatella           1
#>  7 Enontekiö alhainen           1
#>  8 Enontekiö alku               1
#>  9 Enontekiö alku#peräinen      1
#> 10 Enontekiö alku#puoli         1
#> 11 Enontekiö alue              17
#> 12 Enontekiö antaa              3
#> 13 Enontekiö arava#laina        1
#> 14 Enontekiö arava#rajoitus     1
#> 15 Enontekiö arvioida           1
#> 16 Enontekiö asettaa            2
#> 17 Enontekiö asia               3
#> 18 Enontekiö asiakas            3
#> 19 Enontekiö asian#mukainen     1
#> 20 Enontekiö asua               5
#> # ℹ 48,249 more rows
…
Ngrams

Bigram and trigram

ngram <- aspol |> 
  preprocess_corpus(kunta) |> 
  mutate(LEMMA2 = lead(LEMMA, default = "", n = 1), 
         LEMMA3 = lead(LEMMA, default = "", n = 2), 
         bigram = paste0(LEMMA, " ",  LEMMA2),
         trigram = paste0(LEMMA, " ", LEMMA2, " ", LEMMA3),
         .by = kunta)  # c(kunta, sent) limits the words to same sentence
count(ngram, bigram, sort = TRUE)
#> # A tibble: 105,111 × 2
#>    bigram                          n
#>    <chr>                       <int>
#>  1 asunto#poliittinen ohjelma    573
#>  2 huone huone                   290
#>  3 kaupunki omistaa              193
#>  4 maa#poliittinen ohjelma       166
#>  5 henkilö henkilö               161
#>  6 kaupunki asunto#poliittinen   161
#>  7 ottaa huomio                  151
#>  8 erityis#ryhmä asuminen        143
#>  9 kaupunki kaupunki             129
#> 10 tehostaa palvelu#asuminen     127
#> 11 kunta omistaa                 123
#> 12 määrä kasvaa                  116
#> 13 valtio tukea                  112
#> 14 asuminen liittyä              109
#> 15 alue alue                     107
#> 16 keskusta alue                  83
#> 17 asunto#kunta määrä             81
#> 18 tukea asuminen                 80
#> 19 luoda edellytys                79
#> 20 kestävä kehitys                78
#> # ℹ 105,091 more rows

count(ngram, trigram, sort = TRUE)
#> # A tibble: 160,720 × 2
#>    trigram                                    n
#>    <chr>                                  <int>
#>  1 huone huone huone                        237
#>  2 kaupunki asunto#poliittinen ohjelma      134
#>  3 henkilö henkilö henkilö                  100
#>  4 kaupunki kaupunki asunto#ohjelma          64
#>  5 asuminen rahoitus kehittämis#keskus       47
#>  6 Rivi ketju#talo asuin#kerros#talo         44
#>  7 erillinen pien#talo Rivi                  44
#>  8 pien#talo Rivi ketju#talo                 44
#>  9 asunto#poliittinen ohjelma luonnos        42
#> 10 asunto#poliittinen ohjelma päivä          40
#> 11 huone huone tuntematon                    40
#> 12 ohjelma päivä hyvä                        40
#> 13 kaupunki#seutu maa#poliittinen ohjelma    39
#> 14 maan#käyttö asuminen liikenne             39
#> 15 huone tuntematon huone                    34
#> 16 kunta asunto#poliittinen ohjelma          34
#> 17 tuntematon huone huone                    34
#> 18 kiinnittää erityinen huomio               28
#> 19 valtio tukea asunto#tuotanto              28
#> 20 yksikkö kaupunki asunto#poliittinen       25
#> # ℹ 160,700 more rows
…
