3 LDA • rfintext
…
named_vec2df <- function(vec) {
  nms <- names(vec)
  vls <- vec
  # var = deparse(substitute(vec))
  var = enexpr(vec)
  tibble(term = nms, value = vls, type = var)
}

bind_rows(
lapply(list(tc, tf, tf_idf), function(x) {
  # enexpr(x)
  named_vec2df(topfeatures(x))
})
)
#> # A tibble: 30 × 3
#>    term     value  type
#>    <chr>    <dbl> <dbl>
#>  1 kaupunki  4054  4054
#>  2 asunto    3693  3693
#>  3 vuosi     3462  3462
#>  4 asuminen  3011  3011
#>  5 alue      2737  2737
#>  6 kunta     2416  2416
#>  7 tavoite   1824  1824
#>  8 uusi      1467  1467
#>  9 olla      1424  1424
#> 10 osa       1362  1362
#> # ℹ 20 more rows
…
beta_wide <- aspol_topics %>%
  mutate(topic = paste0("topic", topic)) %>%
  pivot_wider(names_from = topic, values_from = beta) %>% 
  filter(topic1 > .001 | topic2 > .001) %>%
  mutate(log_ratio_1_2 = log2(topic2 / topic1),
         log_ratio_2_3 = log2(topic3 / topic2),
         log_ratio_1_3 = log2(topic3 / topic1))

beta_wide
#> # A tibble: 288 × 7
#>    term         topic1  topic2  topic3 log_ratio_1_2 log_ratio_2_3 log_ratio_1_3
#>    <chr>         <dbl>   <dbl>   <dbl>         <dbl>         <dbl>         <dbl>
#>  1 aika        3.08e-3 2.47e-3 4.08e-3       -0.316          0.722         0.406
#>  2 alue        1.53e-2 5.16e-3 1.82e-2       -1.57           1.82          0.248
#>  3 antaa       6.60e-4 1.80e-3 1.38e-3        1.45          -0.387         1.06 
#>  4 arvioida    1.35e-3 1.50e-3 9.96e-4        0.151         -0.588        -0.437
#>  5 asettaa     1.14e-3 1.43e-3 1.80e-3        0.333          0.327         0.660
#>  6 asia        1.19e-3 1.12e-3 5.45e-4       -0.0878        -1.04         -1.13 
#>  7 asiakas     6.09e-4 2.94e-3 1.26e-4        2.27          -4.54         -2.27 
#>  8 asua        6.12e-3 4.77e-3 6.61e-4       -0.360         -2.85         -3.21 
#>  9 asuais#pal… 5.09e-4 1.63e-3 3.48e-5        1.68          -5.55         -3.87 
#> 10 asuin#alue  4.03e-3 3.05e-4 2.83e-3       -3.72           3.21         -0.511
#> # ℹ 278 more rows
…
