3 Topic modeling • rfintext
…
Highest coherence values: 5, 15, 18, 21

lda_models <- foreach(k = optimal_k) %dofuture% {
  topicmodels::LDA(quanteda::convert(dtm, to = "tm"), k = k, control = list(seed = 1234))
}
names(lda_models) <- paste0("k_", optimal_k)

beta_matrix <- bind_rows(
  lapply(lda_models, function(x) {
    tidytext::tidy(x, matrix = "beta")
  }), 
  .id = "model")
beta_matrix
#> # A tibble: 180,599 × 4
#>    model topic term           beta
#>    <chr> <int> <chr>         <dbl>
#>  1 k_5       1 A#talo     1.08e-11
#>  2 k_5       2 A#talo     1.47e-19
#>  3 k_5       3 A#talo     3.55e- 4
#>  4 k_5       4 A#talo     1.51e-14
#>  5 k_5       5 A#talo     2.72e-10
#>  6 k_5       1 III        6.04e-95
#>  7 k_5       2 III        1.54e-95
#>  8 k_5       3 III        3.94e- 5
#>  9 k_5       4 III        1.27e-82
#> 10 k_5       5 III        1.14e-93
#> 11 k_5       1 Vapaa#aika 1.05e- 4
#> 12 k_5       2 Vapaa#aika 6.92e-16
#> 13 k_5       3 Vapaa#aika 4.73e- 4
#> 14 k_5       4 Vapaa#aika 1.42e- 4
#> 15 k_5       5 Vapaa#aika 7.14e- 4
#> 16 k_5       1 aiheuttaa  1.05e- 3
#> 17 k_5       2 aiheuttaa  4.92e- 4
#> 18 k_5       3 aiheuttaa  1.12e- 3
#> 19 k_5       4 aiheuttaa  1.89e- 4
#> 20 k_5       5 aiheuttaa  1.70e- 4
#> 21 k_5       1 aika       4.62e- 3
#> 22 k_5       2 aika       5.27e- 3
#> 23 k_5       3 aika       3.66e- 3
#> 24 k_5       4 aika       4.55e- 3
#> 25 k_5       5 aika       8.22e- 4
#> # ℹ 180,574 more rows

topic_congruence <- beta_matrix |>
  pivot_wider(values_from = beta, names_from = topic) |>
  rename_with(~paste0("Topic_", .), where(is.numeric)) |>
  select(-term)
topic_congruence
#> # A tibble: 12,244 × 22
#>    model  Topic_1  Topic_2   Topic_3  Topic_4  Topic_5 Topic_6 Topic_7 Topic_8
#>    <chr>    <dbl>    <dbl>     <dbl>    <dbl>    <dbl>   <dbl>   <dbl>   <dbl>
#>  1 k_5   1.08e-11 1.47e-19 0.000355  1.51e-14 2.72e-10      NA      NA      NA
#>  2 k_5   6.04e-95 1.54e-95 0.0000394 1.27e-82 1.14e-93      NA      NA      NA
#>  3 k_5   1.05e- 4 6.92e-16 0.000473  1.42e- 4 7.14e- 4      NA      NA      NA
#>  4 k_5   1.05e- 3 4.92e- 4 0.00112   1.89e- 4 1.70e- 4      NA      NA      NA
#>  5 k_5   4.62e- 3 5.27e- 3 0.00366   4.55e- 3 8.22e- 4      NA      NA      NA
#>  6 k_5   8.04e- 4 5.01e- 4 0.000366  4.75e- 4 7.02e- 4      NA      NA      NA
#>  7 k_5   1.04e- 4 1.86e- 5 0.000138  7.25e- 4 1.04e- 4      NA      NA      NA
#>  8 k_5   2.54e- 5 2.88e- 4 0.000501  5.84e- 4 1.37e- 8      NA      NA      NA
#>  9 k_5   3.42e- 5 5.25e- 4 0.000952  4.34e- 5 3.26e- 5      NA      NA      NA
#> 10 k_5   8.09e- 4 8.03e- 4 0.000667  1.09e- 3 1.96e- 4      NA      NA      NA
#> # ℹ 12,234 more rows
#> # ℹ 13 more variables: Topic_9 <dbl>, Topic_10 <dbl>, Topic_11 <dbl>,
#> #   Topic_12 <dbl>, Topic_13 <dbl>, Topic_14 <dbl>, Topic_15 <dbl>,
#> #   Topic_16 <dbl>, Topic_17 <dbl>, Topic_18 <dbl>, Topic_19 <dbl>,
#> #   Topic_20 <dbl>, Topic_21 <dbl>
…
theta_matrix <- bind_rows(
  lapply(lda_models, function(x) {
    tidytext::tidy(x, matrix = "gamma")
  }),
  .id = "model")
theta_matrix
#> # A tibble: 4,012 × 4
#>    model document    topic     gamma
#>    <chr> <chr>       <int>     <dbl>
#>  1 k_5   Enontekiö       1 0.0000903
#>  2 k_5   Espoo           1 0.608    
#>  3 k_5   Eura            1 0.0000872
#>  4 k_5   Hartola         1 0.000107 
#>  5 k_5   Hattula         1 0.216    
#>  6 k_5   Helsinki        1 0.0000129
#>  7 k_5   Huittinen       1 0.0260   
#>  8 k_5   Hyvinkää        1 0.0500   
#>  9 k_5   Hämeenlinna     1 0.0000456
#> 10 k_5   Iitti           1 0.600    
#> 11 k_5   Imatra          1 0.000253 
#> 12 k_5   Inkoo           1 0.696    
#> 13 k_5   Joensuu         1 0.0706   
#> 14 k_5   Juva            1 0.0000627
#> 15 k_5   Järvenpää       1 0.000116 
#> 16 k_5   Kaarina         1 0.922    
#> 17 k_5   Kalajoki        1 0.000710 
#> 18 k_5   Kauniainen      1 0.295    
#> 19 k_5   Kemiönsaari     1 0.900    
#> 20 k_5   Kerava          1 1.00     
#> 21 k_5   Kokkola         1 0.443    
#> 22 k_5   Kontiolahti     1 0.855    
#> 23 k_5   Kouvola         1 0.0000329
#> 24 k_5   Kuopio          1 0.0000172
#> 25 k_5   Kuusamo         1 0.0000252
#> # ℹ 3,987 more rows
…
