4 Model validation • rfintext
…
y <- rfinstats::taantuvat |>
  filter(kunta %in% unique(aspol$kunta))
y
#> # A tibble: 66 × 5
#>    kunta       vaesto kokmuutos_2010_2022 suht_muutos_2010_2022 luokka               
#>    <chr>        <int>               <int>                 <dbl> <fct>                
#>  1 Enontekiö     1876                 -71                 -3.78 Hieman taantuva      
#>  2 Espoo       247970               60944                 24.6  Voimakkaasti kasvava 
#>  3 Eura         12507               -1278                -10.2  Voimakkaasti taantuva
#>  4 Hartola       3355                -814                -24.3  Voimakkaasti taantuva
#>  5 Hattula       9657                -266                 -2.75 Hieman taantuva      
#>  6 Helsinki    588549               80678                 13.7  Voimakkaasti kasvava 
#>  7 Huittinen    10663                -955                 -8.96 Taantuva             
#>  8 Hyvinkää     45489                1527                  3.36 Hieman kasvava       
#>  9 Hämeenlinna  66829                1588                  2.38 Hieman kasvava       
#> 10 Iitti         7005                -557                 -7.95 Taantuva             
#> 11 Imatra       28540               -3468                -12.2  Voimakkaasti taantuva
#> 12 Inkoo         5546                -225                 -4.06 Hieman taantuva      
#> 13 Joensuu      73305                4809                  6.56 Kasvava              
#> 14 Juva          6962               -1295                -18.6  Voimakkaasti taantuva
#> 15 Järvenpää    38680                6922                 17.9  Voimakkaasti kasvava 
#> 16 Kaarina      30911                5088                 16.5  Voimakkaasti kasvava 
#> 17 Kalajoki     12562                -205                 -1.63 Hieman taantuva      
#> 18 Kauniainen    8689                1667                 19.2  Voimakkaasti kasvava 
#> 19 Kemiönsaari   7191                -749                -10.4  Voimakkaasti taantuva
#> 20 Kerava       34282                3843                 11.2  Voimakkaasti kasvava 
#> # ℹ 46 more rows
…
gs <- tidyr::expand_grid(
  booster = "gbtree",
  eta = seq(0.01, 0.1, by = 0.2),
  max_depth = seq(3, 7, by = 1),
  gamma = seq(0, 4, by = 2),
  subsample = seq(0.5, 1, by = 0.25),
  colsample_bylevel = seq(0.5, 1, by = 0.25),
  nrounds = seq(5, 55, by = 25),
  objective = "reg:squarederror",
  num_parallel_tree = 2
)
gs
#> # A tibble: 405 × 9
#>    booster   eta max_depth gamma subsample colsample_bylevel nrounds objective        num_parallel_tree
#>    <chr>   <dbl>     <dbl> <dbl>     <dbl>             <dbl>   <dbl> <chr>                        <dbl>
#>  1 gbtree   0.01         3     0      0.5               0.5        5 reg:squarederror                 2
#>  2 gbtree   0.01         3     0      0.5               0.5       30 reg:squarederror                 2
#>  3 gbtree   0.01         3     0      0.5               0.5       55 reg:squarederror                 2
#>  4 gbtree   0.01         3     0      0.5               0.75       5 reg:squarederror                 2
#>  5 gbtree   0.01         3     0      0.5               0.75      30 reg:squarederror                 2
#>  6 gbtree   0.01         3     0      0.5               0.75      55 reg:squarederror                 2
#>  7 gbtree   0.01         3     0      0.5               1          5 reg:squarederror                 2
#>  8 gbtree   0.01         3     0      0.5               1         30 reg:squarederror                 2
#>  9 gbtree   0.01         3     0      0.5               1         55 reg:squarederror                 2
#> 10 gbtree   0.01         3     0      0.75              0.5        5 reg:squarederror                 2
#> 11 gbtree   0.01         3     0      0.75              0.5       30 reg:squarederror                 2
#> 12 gbtree   0.01         3     0      0.75              0.5       55 reg:squarederror                 2
#> 13 gbtree   0.01         3     0      0.75              0.75       5 reg:squarederror                 2
#> 14 gbtree   0.01         3     0      0.75              0.75      30 reg:squarederror                 2
#> 15 gbtree   0.01         3     0      0.75              0.75      55 reg:squarederror                 2
#> 16 gbtree   0.01         3     0      0.75              1          5 reg:squarederror                 2
#> 17 gbtree   0.01         3     0      0.75              1         30 reg:squarederror                 2
#> 18 gbtree   0.01         3     0      0.75              1         55 reg:squarederror                 2
#> 19 gbtree   0.01         3     0      1                 0.5        5 reg:squarederror                 2
#> 20 gbtree   0.01         3     0      1                 0.5       30 reg:squarederror                 2
#> # ℹ 385 more rows
…
    lapply(xgb_data, function(x) {
    gs |> mutate(xgb_model = purrr::pmap(gs, function(...) mod(x[["train"]], ...), .progress = TRUE))
  }), .id = "lda_model"
  )
)
#>  ■■■■■■■■■■■■■■■■■■■■■■            69% |  ETA:  2s
#>  ■■■■■■■■■■■■■■■■■■■■■             66% |  ETA:  2s
#>  ■■■■■■■■■■■■■■■■■■■               61% |  ETA:  2s
#>  ■■■■■■■■■■■■■■■■■■■■■■■■■■■■■■■  100% |  ETA:  0s
#>  ■■■■■■■■■■■■■■■■■                 53% |  ETA:  3s
#>  ■■■■■■■■■■■■■■■■■■■■■■■■■■■■■     92% |  ETA:  1s
#>    user  system elapsed 
#>  80.630   7.520  25.242
gs
#> # A tibble: 1,620 × 11
#>    lda_model booster   eta max_depth gamma subsample colsample_bylevel nrounds objective        num_parallel_tree xgb_model 
#>    <chr>     <chr>   <dbl>     <dbl> <dbl>     <dbl>             <dbl>   <dbl> <chr>                        <dbl> <list>    
#>  1 k_5       gbtree   0.01         3     0      0.5               0.5        5 reg:squarederror                 2 <xgb.Bstr>
#>  2 k_5       gbtree   0.01         3     0      0.5               0.5       30 reg:squarederror                 2 <xgb.Bstr>
#>  3 k_5       gbtree   0.01         3     0      0.5               0.5       55 reg:squarederror                 2 <xgb.Bstr>
#>  4 k_5       gbtree   0.01         3     0      0.5               0.75       5 reg:squarederror                 2 <xgb.Bstr>
#>  5 k_5       gbtree   0.01         3     0      0.5               0.75      30 reg:squarederror                 2 <xgb.Bstr>
#>  6 k_5       gbtree   0.01         3     0      0.5               0.75      55 reg:squarederror                 2 <xgb.Bstr>
#>  7 k_5       gbtree   0.01         3     0      0.5               1          5 reg:squarederror                 2 <xgb.Bstr>
#>  8 k_5       gbtree   0.01         3     0      0.5               1         30 reg:squarederror                 2 <xgb.Bstr>
#>  9 k_5       gbtree   0.01         3     0      0.5               1         55 reg:squarederror                 2 <xgb.Bstr>
#> 10 k_5       gbtree   0.01         3     0      0.75              0.5        5 reg:squarederror                 2 <xgb.Bstr>
#> 11 k_5       gbtree   0.01         3     0      0.75              0.5       30 reg:squarederror                 2 <xgb.Bstr>
#> 12 k_5       gbtree   0.01         3     0      0.75              0.5       55 reg:squarederror                 2 <xgb.Bstr>
#> 13 k_5       gbtree   0.01         3     0      0.75              0.75       5 reg:squarederror                 2 <xgb.Bstr>
#> 14 k_5       gbtree   0.01         3     0      0.75              0.75      30 reg:squarederror                 2 <xgb.Bstr>
#> 15 k_5       gbtree   0.01         3     0      0.75              0.75      55 reg:squarederror                 2 <xgb.Bstr>
#> 16 k_5       gbtree   0.01         3     0      0.75              1          5 reg:squarederror                 2 <xgb.Bstr>
#> 17 k_5       gbtree   0.01         3     0      0.75              1         30 reg:squarederror                 2 <xgb.Bstr>
#> 18 k_5       gbtree   0.01         3     0      0.75              1         55 reg:squarederror                 2 <xgb.Bstr>
#> 19 k_5       gbtree   0.01         3     0      1                 0.5        5 reg:squarederror                 2 <xgb.Bstr>
#> 20 k_5       gbtree   0.01         3     0      1                 0.5       30 reg:squarederror                 2 <xgb.Bstr>
#> # ℹ 1,600 more rows

# gs_list <- map2(xgb_data, gs_list, function(xgb_dat, xgb_mod) {
#   xgb_mod |> mutate(error = purrr::map_dbl(xgb_model, function(mod) {
#     compute_error(mod, xgb_dat[["test"]])
#   }))
# }  )
# gs_list
gs <- gs |> 
  mutate(error = purrr::map2_dbl(xgb_model, lda_model, function(xgbmod, ldamod) {
    pred <- stats::predict(xgbmod, xgb_data[[ldamod]][["test"]])
    RMSE(labels$test, pred)
  }))

gs |> arrange(error)
#> # A tibble: 1,620 × 12
#>    lda_model booster   eta max_depth gamma subsample colsample_bylevel nrounds
#>    <chr>     <chr>   <dbl>     <dbl> <dbl>     <dbl>             <dbl>   <dbl>
#>  1 k_21      gbtree   0.01         6     4         1              1         55
#>  2 k_21      gbtree   0.01         7     4         1              1         55
#>  3 k_21      gbtree   0.01         6     2         1              0.75      55
#>  4 k_21      gbtree   0.01         6     2         1              1         55
#>  5 k_21      gbtree   0.01         4     2         1              0.75      55
#>  6 k_21      gbtree   0.01         5     2         1              0.75      55
#>  7 k_21      gbtree   0.01         5     4         1              0.75      55
#>  8 k_21      gbtree   0.01         7     4         1              0.75      55
#>  9 k_21      gbtree   0.01         7     2         1              1         55
#> 10 k_18      gbtree   0.01         7     0         1              0.75      55
#> # ℹ 1,610 more rows
#> # ℹ 4 more variables: objective <chr>, num_parallel_tree <dbl>,
#> #   xgb_model <list>, error <dbl>
…
