4 XGBoost classification • rfintext
…
y <- aspol |>
  distinct(kunta) |>
  left_join(taantuvat) |>
  filter(!is.na(luokka)) |>
  mutate(luokka = forcats::fct_collapse(luokka,
                                        Kasvava = c("Voimakkaasti kasvava",
                                                    "Kasvava",
                                                    "Hieman kasvava"), 
                                        Taantuva = c("Hieman taantuva",
                                                     "Taantuva",
                                                     "Voimakkaasti taantuva")))
y
#> # A tibble: 66 × 5
#>    kunta        vaesto kokmuutos_2010_2022 suht_muutos_2010_2022 luokka  
#>    <chr>         <dbl>               <int>                 <dbl> <fct>   
#>  1 Enontekiö     1858                  -71                 -3.82 Taantuva
#>  2 Espoo       275040.               60944                 22.2  Kasvava 
#>  3 Eura         11971.               -1278                -10.7  Taantuva
#>  4 Hartola       2934.                -814                -27.7  Taantuva
#>  5 Hattula       9582.                -266                 -2.78 Taantuva
#>  6 Helsinki    631479.               80678                 12.8  Kasvava 
#>  7 Huittinen    10286.                -955                 -9.28 Taantuva
#>  8 Hyvinkää     46322.                1527                  3.30 Kasvava 
#>  9 Hämeenlinna  67687.                1588                  2.35 Kasvava 
#> 10 Iitti         6821.                -557                 -8.17 Taantuva
#> 11 Imatra       27274.               -3468                -12.7  Taantuva
#> 12 Inkoo         5479.                -225                 -4.11 Taantuva
#> 13 Joensuu      75637.                4809                  6.36 Kasvava 
#> 14 Juva          6398.               -1295                -20.2  Taantuva
#> 15 Järvenpää    41928.                6922                 16.5  Kasvava 
#> 16 Kaarina      33010.                5088                 15.4  Kasvava 
#> 17 Kalajoki     12516.                -205                 -1.64 Taantuva
#> 18 Kauniainen    9511.                1667                 17.5  Kasvava 
#> 19 Kemiönsaari   6854.                -749                -10.9  Taantuva
#> 20 Kerava       35764.                3843                 10.7  Kasvava 
#> # ℹ 46 more rows
…
gs <- tidyr::expand_grid(
  booster = "gbtree",
  eta = seq(0.01, 0.4, by = 0.1),
  max_depth = seq(3, 9, by = 1),
  gamma = seq(0, 4, by = 2),
  subsample = seq(0.5, 1, by = 0.25),
  colsample_bylevel = seq(0.5, 1, by = 0.25),
  nrounds = seq(5, 50, by = 20),
  objective = "binary:logistic",
  num_parallel_tree = 2
)
gs
#> # A tibble: 2,268 × 9
#>    booster   eta max_depth gamma subsample colsample_bylevel nrounds objective       num_parallel_tree
#>    <chr>   <dbl>     <dbl> <dbl>     <dbl>             <dbl>   <dbl> <chr>                       <dbl>
#>  1 gbtree   0.01         3     0      0.5               0.5        5 binary:logistic                 2
#>  2 gbtree   0.01         3     0      0.5               0.5       25 binary:logistic                 2
#>  3 gbtree   0.01         3     0      0.5               0.5       45 binary:logistic                 2
#>  4 gbtree   0.01         3     0      0.5               0.75       5 binary:logistic                 2
#>  5 gbtree   0.01         3     0      0.5               0.75      25 binary:logistic                 2
#>  6 gbtree   0.01         3     0      0.5               0.75      45 binary:logistic                 2
#>  7 gbtree   0.01         3     0      0.5               1          5 binary:logistic                 2
#>  8 gbtree   0.01         3     0      0.5               1         25 binary:logistic                 2
#>  9 gbtree   0.01         3     0      0.5               1         45 binary:logistic                 2
#> 10 gbtree   0.01         3     0      0.75              0.5        5 binary:logistic                 2
#> 11 gbtree   0.01         3     0      0.75              0.5       25 binary:logistic                 2
#> 12 gbtree   0.01         3     0      0.75              0.5       45 binary:logistic                 2
#> 13 gbtree   0.01         3     0      0.75              0.75       5 binary:logistic                 2
#> 14 gbtree   0.01         3     0      0.75              0.75      25 binary:logistic                 2
#> 15 gbtree   0.01         3     0      0.75              0.75      45 binary:logistic                 2
#> 16 gbtree   0.01         3     0      0.75              1          5 binary:logistic                 2
#> 17 gbtree   0.01         3     0      0.75              1         25 binary:logistic                 2
#> 18 gbtree   0.01         3     0      0.75              1         45 binary:logistic                 2
#> 19 gbtree   0.01         3     0      1                 0.5        5 binary:logistic                 2
#> 20 gbtree   0.01         3     0      1                 0.5       25 binary:logistic                 2
#> # ℹ 2,248 more rows
…
gs_list
#> $k_5
#> # A tibble: 2,268 × 10
#>    booster   eta max_depth gamma subsample colsample_bylevel nrounds objective       num_parallel_tree xgb_model 
#>    <chr>   <dbl>     <dbl> <dbl>     <dbl>             <dbl>   <dbl> <chr>                       <dbl> <list>    
#>  1 gbtree   0.01         3     0      0.5               0.5        5 binary:logistic                 2 <xgb.Bstr>
#>  2 gbtree   0.01         3     0      0.5               0.5       25 binary:logistic                 2 <xgb.Bstr>
#>  3 gbtree   0.01         3     0      0.5               0.5       45 binary:logistic                 2 <xgb.Bstr>
#>  4 gbtree   0.01         3     0      0.5               0.75       5 binary:logistic                 2 <xgb.Bstr>
#>  5 gbtree   0.01         3     0      0.5               0.75      25 binary:logistic                 2 <xgb.Bstr>
#>  6 gbtree   0.01         3     0      0.5               0.75      45 binary:logistic                 2 <xgb.Bstr>
#>  7 gbtree   0.01         3     0      0.5               1          5 binary:logistic                 2 <xgb.Bstr>
#>  8 gbtree   0.01         3     0      0.5               1         25 binary:logistic                 2 <xgb.Bstr>
#>  9 gbtree   0.01         3     0      0.5               1         45 binary:logistic                 2 <xgb.Bstr>
#> 10 gbtree   0.01         3     0      0.75              0.5        5 binary:logistic                 2 <xgb.Bstr>
#> 11 gbtree   0.01         3     0      0.75              0.5       25 binary:logistic                 2 <xgb.Bstr>
#> 12 gbtree   0.01         3     0      0.75              0.5       45 binary:logistic                 2 <xgb.Bstr>
#> 13 gbtree   0.01         3     0      0.75              0.75       5 binary:logistic                 2 <xgb.Bstr>
#> 14 gbtree   0.01         3     0      0.75              0.75      25 binary:logistic                 2 <xgb.Bstr>
#> 15 gbtree   0.01         3     0      0.75              0.75      45 binary:logistic                 2 <xgb.Bstr>
#> 16 gbtree   0.01         3     0      0.75              1          5 binary:logistic                 2 <xgb.Bstr>
#> 17 gbtree   0.01         3     0      0.75              1         25 binary:logistic                 2 <xgb.Bstr>
#> 18 gbtree   0.01         3     0      0.75              1         45 binary:logistic                 2 <xgb.Bstr>
#> 19 gbtree   0.01         3     0      1                 0.5        5 binary:logistic                 2 <xgb.Bstr>
#> 20 gbtree   0.01         3     0      1                 0.5       25 binary:logistic                 2 <xgb.Bstr>
#> # ℹ 2,248 more rows
#> 
#> $k_15
#> # A tibble: 2,268 × 10
#>    booster   eta max_depth gamma subsample colsample_bylevel nrounds objective       num_parallel_tree xgb_model 
#>    <chr>   <dbl>     <dbl> <dbl>     <dbl>             <dbl>   <dbl> <chr>                       <dbl> <list>    
#>  1 gbtree   0.01         3     0      0.5               0.5        5 binary:logistic                 2 <xgb.Bstr>
#>  2 gbtree   0.01         3     0      0.5               0.5       25 binary:logistic                 2 <xgb.Bstr>
#>  3 gbtree   0.01         3     0      0.5               0.5       45 binary:logistic                 2 <xgb.Bstr>
#>  4 gbtree   0.01         3     0      0.5               0.75       5 binary:logistic                 2 <xgb.Bstr>
#>  5 gbtree   0.01         3     0      0.5               0.75      25 binary:logistic                 2 <xgb.Bstr>
#>  6 gbtree   0.01         3     0      0.5               0.75      45 binary:logistic                 2 <xgb.Bstr>
#>  7 gbtree   0.01         3     0      0.5               1          5 binary:logistic                 2 <xgb.Bstr>
#>  8 gbtree   0.01         3     0      0.5               1         25 binary:logistic                 2 <xgb.Bstr>
#>  9 gbtree   0.01         3     0      0.5               1         45 binary:logistic                 2 <xgb.Bstr>
#> 10 gbtree   0.01         3     0      0.75              0.5        5 binary:logistic                 2 <xgb.Bstr>
#> 11 gbtree   0.01         3     0      0.75              0.5       25 binary:logistic                 2 <xgb.Bstr>
#> 12 gbtree   0.01         3     0      0.75              0.5       45 binary:logistic                 2 <xgb.Bstr>
#> 13 gbtree   0.01         3     0      0.75              0.75       5 binary:logistic                 2 <xgb.Bstr>
#> 14 gbtree   0.01         3     0      0.75              0.75      25 binary:logistic                 2 <xgb.Bstr>
#> 15 gbtree   0.01         3     0      0.75              0.75      45 binary:logistic                 2 <xgb.Bstr>
#> 16 gbtree   0.01         3     0      0.75              1          5 binary:logistic                 2 <xgb.Bstr>
#> 17 gbtree   0.01         3     0      0.75              1         25 binary:logistic                 2 <xgb.Bstr>
#> 18 gbtree   0.01         3     0      0.75              1         45 binary:logistic                 2 <xgb.Bstr>
#> 19 gbtree   0.01         3     0      1                 0.5        5 binary:logistic                 2 <xgb.Bstr>
#> 20 gbtree   0.01         3     0      1                 0.5       25 binary:logistic                 2 <xgb.Bstr>
#> # ℹ 2,248 more rows
#> 
#> $k_18
#> # A tibble: 2,268 × 10
#>    booster   eta max_depth gamma subsample colsample_bylevel nrounds objective       num_parallel_tree xgb_model 
#>    <chr>   <dbl>     <dbl> <dbl>     <dbl>             <dbl>   <dbl> <chr>                       <dbl> <list>    
#>  1 gbtree   0.01         3     0      0.5               0.5        5 binary:logistic                 2 <xgb.Bstr>
#>  2 gbtree   0.01         3     0      0.5               0.5       25 binary:logistic                 2 <xgb.Bstr>
#>  3 gbtree   0.01         3     0      0.5               0.5       45 binary:logistic                 2 <xgb.Bstr>
#>  4 gbtree   0.01         3     0      0.5               0.75       5 binary:logistic                 2 <xgb.Bstr>
#>  5 gbtree   0.01         3     0      0.5               0.75      25 binary:logistic                 2 <xgb.Bstr>
#>  6 gbtree   0.01         3     0      0.5               0.75      45 binary:logistic                 2 <xgb.Bstr>
#>  7 gbtree   0.01         3     0      0.5               1          5 binary:logistic                 2 <xgb.Bstr>
#>  8 gbtree   0.01         3     0      0.5               1         25 binary:logistic                 2 <xgb.Bstr>
#>  9 gbtree   0.01         3     0      0.5               1         45 binary:logistic                 2 <xgb.Bstr>
#> 10 gbtree   0.01         3     0      0.75              0.5        5 binary:logistic                 2 <xgb.Bstr>
#> 11 gbtree   0.01         3     0      0.75              0.5       25 binary:logistic                 2 <xgb.Bstr>
#> 12 gbtree   0.01         3     0      0.75              0.5       45 binary:logistic                 2 <xgb.Bstr>
#> 13 gbtree   0.01         3     0      0.75              0.75       5 binary:logistic                 2 <xgb.Bstr>
#> 14 gbtree   0.01         3     0      0.75              0.75      25 binary:logistic                 2 <xgb.Bstr>
#> 15 gbtree   0.01         3     0      0.75              0.75      45 binary:logistic                 2 <xgb.Bstr>
#> 16 gbtree   0.01         3     0      0.75              1          5 binary:logistic                 2 <xgb.Bstr>
#> 17 gbtree   0.01         3     0      0.75              1         25 binary:logistic                 2 <xgb.Bstr>
#> 18 gbtree   0.01         3     0      0.75              1         45 binary:logistic                 2 <xgb.Bstr>
#> 19 gbtree   0.01         3     0      1                 0.5        5 binary:logistic                 2 <xgb.Bstr>
#> 20 gbtree   0.01         3     0      1                 0.5       25 binary:logistic                 2 <xgb.Bstr>
#> # ℹ 2,248 more rows
#> 
#> $k_21
#> # A tibble: 2,268 × 10
#>    booster   eta max_depth gamma subsample colsample_bylevel nrounds objective       num_parallel_tree xgb_model 
#>    <chr>   <dbl>     <dbl> <dbl>     <dbl>             <dbl>   <dbl> <chr>                       <dbl> <list>    
#>  1 gbtree   0.01         3     0      0.5               0.5        5 binary:logistic                 2 <xgb.Bstr>
#>  2 gbtree   0.01         3     0      0.5               0.5       25 binary:logistic                 2 <xgb.Bstr>
#>  3 gbtree   0.01         3     0      0.5               0.5       45 binary:logistic                 2 <xgb.Bstr>
#>  4 gbtree   0.01         3     0      0.5               0.75       5 binary:logistic                 2 <xgb.Bstr>
#>  5 gbtree   0.01         3     0      0.5               0.75      25 binary:logistic                 2 <xgb.Bstr>
#>  6 gbtree   0.01         3     0      0.5               0.75      45 binary:logistic                 2 <xgb.Bstr>
#>  7 gbtree   0.01         3     0      0.5               1          5 binary:logistic                 2 <xgb.Bstr>
#>  8 gbtree   0.01         3     0      0.5               1         25 binary:logistic                 2 <xgb.Bstr>
#>  9 gbtree   0.01         3     0      0.5               1         45 binary:logistic                 2 <xgb.Bstr>
#> 10 gbtree   0.01         3     0      0.75              0.5        5 binary:logistic                 2 <xgb.Bstr>
#> 11 gbtree   0.01         3     0      0.75              0.5       25 binary:logistic                 2 <xgb.Bstr>
#> 12 gbtree   0.01         3     0      0.75              0.5       45 binary:logistic                 2 <xgb.Bstr>
#> 13 gbtree   0.01         3     0      0.75              0.75       5 binary:logistic                 2 <xgb.Bstr>
#> 14 gbtree   0.01         3     0      0.75              0.75      25 binary:logistic                 2 <xgb.Bstr>
#> 15 gbtree   0.01         3     0      0.75              0.75      45 binary:logistic                 2 <xgb.Bstr>
#> 16 gbtree   0.01         3     0      0.75              1          5 binary:logistic                 2 <xgb.Bstr>
#> 17 gbtree   0.01         3     0      0.75              1         25 binary:logistic                 2 <xgb.Bstr>
#> 18 gbtree   0.01         3     0      0.75              1         45 binary:logistic                 2 <xgb.Bstr>
#> 19 gbtree   0.01         3     0      1                 0.5        5 binary:logistic                 2 <xgb.Bstr>
#> 20 gbtree   0.01         3     0      1                 0.5       25 binary:logistic                 2 <xgb.Bstr>
#> # ℹ 2,248 more rows

gs_list <- map2(xgb_data, gs_list, function(xgb_dat, xgb_mod) {
  xgb_mod |> mutate(error = purrr::map_dbl(xgb_model, function(mod) {
    compute_error(mod, xgb_dat[["Test"]])
  }))
}  )
gs_list
#> $k_5
#> # A tibble: 2,268 × 11
#>    booster   eta max_depth gamma subsample colsample_bylevel nrounds objective       num_parallel_tree xgb_model  error
#>    <chr>   <dbl>     <dbl> <dbl>     <dbl>             <dbl>   <dbl> <chr>                       <dbl> <list>     <dbl>
#>  1 gbtree   0.01         3     0      0.5               0.5        5 binary:logistic                 2 <xgb.Bstr> 0.263
#>  2 gbtree   0.01         3     0      0.5               0.5       25 binary:logistic                 2 <xgb.Bstr> 0.316
#>  3 gbtree   0.01         3     0      0.5               0.5       45 binary:logistic                 2 <xgb.Bstr> 0.316
#>  4 gbtree   0.01         3     0      0.5               0.75       5 binary:logistic                 2 <xgb.Bstr> 0.316
#>  5 gbtree   0.01         3     0      0.5               0.75      25 binary:logistic                 2 <xgb.Bstr> 0.316
#>  6 gbtree   0.01         3     0      0.5               0.75      45 binary:logistic                 2 <xgb.Bstr> 0.316
#>  7 gbtree   0.01         3     0      0.5               1          5 binary:logistic                 2 <xgb.Bstr> 0.316
#>  8 gbtree   0.01         3     0      0.5               1         25 binary:logistic                 2 <xgb.Bstr> 0.316
#>  9 gbtree   0.01         3     0      0.5               1         45 binary:logistic                 2 <xgb.Bstr> 0.316
#> 10 gbtree   0.01         3     0      0.75              0.5        5 binary:logistic                 2 <xgb.Bstr> 0.316
#> 11 gbtree   0.01         3     0      0.75              0.5       25 binary:logistic                 2 <xgb.Bstr> 0.316
#> 12 gbtree   0.01         3     0      0.75              0.5       45 binary:logistic                 2 <xgb.Bstr> 0.316
#> 13 gbtree   0.01         3     0      0.75              0.75       5 binary:logistic                 2 <xgb.Bstr> 0.316
#> 14 gbtree   0.01         3     0      0.75              0.75      25 binary:logistic                 2 <xgb.Bstr> 0.316
#> 15 gbtree   0.01         3     0      0.75              0.75      45 binary:logistic                 2 <xgb.Bstr> 0.316
#> 16 gbtree   0.01         3     0      0.75              1          5 binary:logistic                 2 <xgb.Bstr> 0.316
#> 17 gbtree   0.01         3     0      0.75              1         25 binary:logistic                 2 <xgb.Bstr> 0.316
#> 18 gbtree   0.01         3     0      0.75              1         45 binary:logistic                 2 <xgb.Bstr> 0.263
#> 19 gbtree   0.01         3     0      1                 0.5        5 binary:logistic                 2 <xgb.Bstr> 0.263
#> 20 gbtree   0.01         3     0      1                 0.5       25 binary:logistic                 2 <xgb.Bstr> 0.316
#> # ℹ 2,248 more rows
…
