5 Results • rfintext
…
optimal_k <- c(5, 15, 18, 21)
lda_models <- foreach(k = optimal_k) %dofuture% {
  topicmodels::LDA(quanteda::convert(dtm, to = "tm"), k = k, control = list(seed = 1234))
}
names(lda_models) <- paste0("k_", optimal_k)

y <- rfinstats::taantuvat |>
  filter(kunta %in% unique(aspol$kunta))
y
#> # A tibble: 66 × 5
#>    kunta       vaesto kokmuutos_2010_2022 suht_muutos_2010_2022 luokka          
#>    <chr>        <int>               <int>                 <dbl> <fct>           
#>  1 Enontekiö     1876                 -71                 -3.78 Hieman taantuva 
#>  2 Espoo       247970               60944                 24.6  Voimakkaasti ka…
#>  3 Eura         12507               -1278                -10.2  Voimakkaasti ta…
#>  4 Hartola       3355                -814                -24.3  Voimakkaasti ta…
#>  5 Hattula       9657                -266                 -2.75 Hieman taantuva 
#>  6 Helsinki    588549               80678                 13.7  Voimakkaasti ka…
#>  7 Huittinen    10663                -955                 -8.96 Taantuva        
#>  8 Hyvinkää     45489                1527                  3.36 Hieman kasvava  
#>  9 Hämeenlinna  66829                1588                  2.38 Hieman kasvava  
#> 10 Iitti         7005                -557                 -7.95 Taantuva        
#> # ℹ 56 more rows

theta_matrix <- bind_rows(
  lapply(lda_models, function(x) {
    tidytext::tidy(x, matrix = "gamma") |>
      filter(document %in% y$kunta)
  }),
  .id = "model")
theta_matrix
#> # A tibble: 3,894 × 4
#>    model document    topic     gamma
#>    <chr> <chr>       <int>     <dbl>
#>  1 k_5   Enontekiö       1 0.0000903
#>  2 k_5   Espoo           1 0.608    
#>  3 k_5   Eura            1 0.0000872
#>  4 k_5   Hartola         1 0.000107 
#>  5 k_5   Hattula         1 0.216    
#>  6 k_5   Helsinki        1 0.0000129
#>  7 k_5   Huittinen       1 0.0260   
#>  8 k_5   Hyvinkää        1 0.0500   
#>  9 k_5   Hämeenlinna     1 0.0000456
#> 10 k_5   Iitti           1 0.600    
#> # ℹ 3,884 more rows
…
