5 XGBoost classification • rfintext
…
y <- aspol |>
  distinct(kunta) |>
  left_join(taantuvat) |>
  filter(!is.na(luokka)) |>
  mutate(luokka = forcats::fct_collapse(luokka,
                                        Kasvava = c("Voimakkaasti kasvava",
                                                    "Kasvava",
                                                    "Hieman kasvava"), 
                                        # Vakaa = c("Hieman kasvava",
                                        #           "Hieman taantuva"),
                                        Taantuva = c("Hieman taantuva",
                                                     "Taantuva",
                                                     "Voimakkaasti taantuva")))
y
#> # A tibble: 66 × 5
#>    kunta        vaesto kokmuutos_2010_2022 suht_muutos_2010_2022 luokka  
#>    <chr>         <dbl>               <int>                 <dbl> <fct>   
#>  1 Enontekiö     1858                  -71                 -3.82 Taantuva
#>  2 Espoo       275040.               60944                 22.2  Kasvava 
#>  3 Eura         11971.               -1278                -10.7  Taantuva
#>  4 Hartola       2934.                -814                -27.7  Taantuva
#>  5 Hattula       9582.                -266                 -2.78 Taantuva
#>  6 Helsinki    631479.               80678                 12.8  Kasvava 
#>  7 Huittinen    10286.                -955                 -9.28 Taantuva
#>  8 Hyvinkää     46322.                1527                  3.30 Kasvava 
#>  9 Hämeenlinna  67687.                1588                  2.35 Kasvava 
#> 10 Iitti         6821.                -557                 -8.17 Taantuva
#> # ℹ 56 more rows
…
