6 Word clouds • rfintext
…
  suppressMessages(
  df |>
    count({{group}}, LEMMA, sort = TRUE, name = "dtc") |>
    left_join(group_size)
  )
}

tidy_tf_idf <- aspol_f |>
  count_doc_size(luokka) |>
  bind_tf_idf(LEMMA, luokka, dtc)

tidy_tf_idf %>%
  select(-group_term_count) %>%
  arrange(desc(tf_idf))
#> # A tibble: 19,690 × 6
#>    luokka                LEMMA                 dtc       tf   idf   tf_idf
#>    <fct>                 <chr>               <int>    <dbl> <dbl>    <dbl>
#>  1 Hieman kasvava        kanta#kaupunki        144 0.00825  0.405 0.00335 
#>  2 Voimakkaasti taantuva luokitus               39 0.00119  1.79  0.00214 
#>  3 Hieman kasvava        maan#vuokra#sopimus    40 0.00229  0.693 0.00159 
#>  4 Taantuva              pl                     37 0.00129  1.10  0.00142 
#>  5 Taantuva              puhelin                36 0.00126  1.10  0.00138 
#>  6 Hieman kasvava        ruutu                  33 0.00189  0.693 0.00131 
#>  7 Hieman kasvava        sopimus#sakko          31 0.00178  0.693 0.00123 
#>  8 Hieman kasvava        heikkous               29 0.00166  0.693 0.00115 
#>  9 Voimakkaasti taantuva kehys#alue             42 0.00128  0.693 0.000889
#> 10 Hieman kasvava        lähtö                  14 0.000802 1.10  0.000882
#> # ℹ 19,680 more rows
…
