avainsanat kuntaluokittain • rfintext
…
sanat_per_luokka <- aspol |>
  filter(UPOSTAG %in% c("NOUN", "ADJ", "VERB")) |>
  left_join(taantuvat) |>
  filter(!is.na(luokka)) |>
  count(luokka, LEMMA, name = "dtf", sort = TRUE) |>
  bind_tf_idf(LEMMA, luokka, dtf)
#> Joining with `by = join_by(kunta)`

sanat_per_luokka
#> # A tibble: 34,523 × 6
#>    luokka                LEMMA      dtf     tf   idf tf_idf
#>    <fct>                 <chr>    <int>  <dbl> <dbl>  <dbl>
#>  1 Voimakkaasti kasvava  kaupunki  1120 0.0233     0      0
#>  2 Voimakkaasti taantuva kunta      934 0.0239     0      0
#>  3 Voimakkaasti kasvava  asunto     926 0.0193     0      0
#>  4 Voimakkaasti kasvava  vuosi      905 0.0189     0      0
#>  5 Kasvava               asunto     880 0.0168     0      0
#>  6 Kasvava               vuosi      844 0.0161     0      0
#>  7 Kasvava               kaupunki   780 0.0149     0      0
#>  8 Kasvava               alue       765 0.0146     0      0
#>  9 Kasvava               asuminen   750 0.0143     0      0
#> 10 Taantuva              kaupunki   748 0.0233     0      0
#> # ℹ 34,513 more rows
…
